Take-home Exercise 1 – ISSS608-VAA
…
      Pop              Time     
 Min.   :   0.0   Min.   :2024  
 1st Qu.:   0.0   1st Qu.:2024  
 Median :  20.0   Median :2024  
 Mean   :  69.4   Mean   :2024  
 3rd Qu.:  90.0   3rd Qu.:2024  
 Max.   :1180.0   Max.   :2024  

The distinct() function is used to check if there are any duplicate values. The distinct() function returns unique rows.

distinct(sgResData24)

# A tibble: 60,424 × 6
   PA         SZ                     Age   Sex       Pop  Time
   <chr>      <chr>                  <chr> <chr>   <dbl> <dbl>
 1 Ang Mo Kio Ang Mo Kio Town Centre 0     Males      10  2024
 2 Ang Mo Kio Ang Mo Kio Town Centre 0     Females    10  2024
 3 Ang Mo Kio Ang Mo Kio Town Centre 1     Males      10  2024
 4 Ang Mo Kio Ang Mo Kio Town Centre 1     Females    10  2024
 5 Ang Mo Kio Ang Mo Kio Town Centre 2     Males      10  2024
 6 Ang Mo Kio Ang Mo Kio Town Centre 2     Females    10  2024
 7 Ang Mo Kio Ang Mo Kio Town Centre 3     Males      10  2024
 8 Ang Mo Kio Ang Mo Kio Town Centre 3     Females    10  2024
 9 Ang Mo Kio Ang Mo Kio Town Centre 4     Males      30  2024
10 Ang Mo Kio Ang Mo Kio Town Centre 4     Females    10  2024
# ℹ 60,414 more rows

From the output of distinct() there are 60,424 x 6 rows returned, showing that there are no duplicated rows in the dataset.

Using the count() function, we can view the unique values/names from each column

PA Column Count
SZ Column Count
AG Column Count
Sex Column Count
Time Column Count

count(sgResData24,PA)

# A tibble: 55 × 2
   PA                          n
   <chr>                   <int>
 1 Ang Mo Kio               2184
 2 Bedok                    1456
 3 Bishan                    546
 4 Boon Lay                  728
 5 Bukit Batok              1638
 6 Bukit Merah              3094
 7 Bukit Panjang            1274
 8 Bukit Timah              1456
 9 Central Water Catchment   182
10 Changi                    546
# ℹ 45 more rows

There are 55 unique planning areas

count(sgResData24,SZ)

# A tibble: 332 × 2
   SZ                         n
   <chr>                  <int>
 1 Admiralty                182
 2 Airport Road             182
 3 Alexandra Hill           182
 4 Alexandra North          182
 5 Aljunied                 182
 6 Anak Bukit               182
 7 Anchorvale               182
 8 Ang Mo Kio Town Centre   182
 9 Anson                    182
10 Bahar                    182
# ℹ 322 more rows

There are 332 unique subzones

count(sgResData24,Age)

# A tibble: 91 × 2
   Age       n
   <chr> <int>
 1 0       664
 2 1       664
 3 10      664
 4 11      664
 5 12      664
 6 13      664
 7 14      664
 8 15      664
 9 16      664
10 17      664
# ℹ 81 more rows
…
We can then check our adjusted dataset using the print() function below:

print(sgResData24)

# A tibble: 60,424 × 8
   PA         SZ                     Age   Sex       Pop  Time Age_num Age_group
   <chr>      <chr>                  <chr> <chr>   <dbl> <dbl>   <dbl> <chr>    
 1 Ang Mo Kio Ang Mo Kio Town Centre 0     Males      10  2024       0 0-9      
 2 Ang Mo Kio Ang Mo Kio Town Centre 0     Females    10  2024       0 0-9      
 3 Ang Mo Kio Ang Mo Kio Town Centre 1     Males      10  2024       1 0-9      
 4 Ang Mo Kio Ang Mo Kio Town Centre 1     Females    10  2024       1 0-9      
 5 Ang Mo Kio Ang Mo Kio Town Centre 2     Males      10  2024       2 0-9      
 6 Ang Mo Kio Ang Mo Kio Town Centre 2     Females    10  2024       2 0-9      
 7 Ang Mo Kio Ang Mo Kio Town Centre 3     Males      10  2024       3 0-9      
 8 Ang Mo Kio Ang Mo Kio Town Centre 3     Females    10  2024       3 0-9      
 9 Ang Mo Kio Ang Mo Kio Town Centre 4     Males      30  2024       4 0-9      
10 Ang Mo Kio Ang Mo Kio Town Centre 4     Females    10  2024       4 0-9      
# ℹ 60,414 more rows
…
# Apply the extraction function to each row
info_list <- lapply(geo_data$Description, extract_info)

# Combine results into a data frame
info_df <- bind_rows(info_list) %>% distinct() %>% arrange(Region, Town)

# View result
print(info_df)

# A tibble: 55 × 2
   Town          Region        
   <chr>         <chr>         
 1 BISHAN        CENTRAL REGION
 2 BUKIT MERAH   CENTRAL REGION
 3 BUKIT TIMAH   CENTRAL REGION
 4 DOWNTOWN CORE CENTRAL REGION
 5 GEYLANG       CENTRAL REGION
 6 KALLANG       CENTRAL REGION
 7 MARINA EAST   CENTRAL REGION
 8 MARINA SOUTH  CENTRAL REGION
 9 MARINE PARADE CENTRAL REGION
10 MUSEUM        CENTRAL REGION
# ℹ 45 more rows

From the output of the above print(info_df), we have a 55x2 table of “Town” and “Region” which we can then use for joining with our sgResData24 dataset.

To prepare our data for joining we first transform our sgResData24 dataset’s “PA” column data to uppercase to match the info_df dataset “Town” data for joining later

sgResData24 %>% mutate(PA = toupper(PA))

# A tibble: 60,424 × 8
   PA         SZ                     Age   Sex       Pop  Time Age_num Age_group
   <chr>      <chr>                  <chr> <chr>   <dbl> <dbl>   <dbl> <chr>    
 1 ANG MO KIO Ang Mo Kio Town Centre 0     Males      10  2024       0 0-9      
 2 ANG MO KIO Ang Mo Kio Town Centre 0     Females    10  2024       0 0-9      
 3 ANG MO KIO Ang Mo Kio Town Centre 1     Males      10  2024       1 0-9      
 4 ANG MO KIO Ang Mo Kio Town Centre 1     Females    10  2024       1 0-9      
 5 ANG MO KIO Ang Mo Kio Town Centre 2     Males      10  2024       2 0-9      
 6 ANG MO KIO Ang Mo Kio Town Centre 2     Females    10  2024       2 0-9      
 7 ANG MO KIO Ang Mo Kio Town Centre 3     Males      10  2024       3 0-9      
 8 ANG MO KIO Ang Mo Kio Town Centre 3     Females    10  2024       3 0-9      
 9 ANG MO KIO Ang Mo Kio Town Centre 4     Males      30  2024       4 0-9      
10 ANG MO KIO Ang Mo Kio Town Centre 4     Females    10  2024       4 0-9      
# ℹ 60,414 more rows
…
We can then perform a left_join of the sgResData24 “PA” column with the info_df dataset’s “PA” column to introduce the Region Column into sgResData24 dataset.

library(dplyr)

# Rename Town to PA in the region info dataframe
region_info <- info_df %>% rename(PA = Town)

# left join sgResData24 with region_info to get Region column
sgResData24 <- sgResData24 %>% mutate(PA = toupper(PA)) %>%
  left_join(region_info, by = "PA")

print(sgResData24)

# A tibble: 60,424 × 9
   PA         SZ                Age   Sex     Pop  Time Age_num Age_group Region
   <chr>      <chr>             <chr> <chr> <dbl> <dbl>   <dbl> <chr>     <chr> 
 1 ANG MO KIO Ang Mo Kio Town … 0     Males    10  2024       0 0-9       NORTH…
 2 ANG MO KIO Ang Mo Kio Town … 0     Fema…    10  2024       0 0-9       NORTH…
 3 ANG MO KIO Ang Mo Kio Town … 1     Males    10  2024       1 0-9       NORTH…
 4 ANG MO KIO Ang Mo Kio Town … 1     Fema…    10  2024       1 0-9       NORTH…
 5 ANG MO KIO Ang Mo Kio Town … 2     Males    10  2024       2 0-9       NORTH…
 6 ANG MO KIO Ang Mo Kio Town … 2     Fema…    10  2024       2 0-9       NORTH…
 7 ANG MO KIO Ang Mo Kio Town … 3     Males    10  2024       3 0-9       NORTH…
 8 ANG MO KIO Ang Mo Kio Town … 3     Fema…    10  2024       3 0-9       NORTH…
 9 ANG MO KIO Ang Mo Kio Town … 4     Males    30  2024       4 0-9       NORTH…
10 ANG MO KIO Ang Mo Kio Town … 4     Fema…    10  2024       4 0-9       NORTH…
# ℹ 60,414 more rows
…
The distinct() function is used to check if there are any duplicate values. The distinct() function returns unique rows.

distinct(sgResData24)

# A tibble: 60,424 × 9
   PA         SZ                Age   Sex     Pop  Time Age_num Age_group Region
   <chr>      <chr>             <chr> <chr> <dbl> <dbl>   <dbl> <chr>     <chr> 
 1 ANG MO KIO Ang Mo Kio Town … 0     Males    10  2024       0 0-9       NORTH…
 2 ANG MO KIO Ang Mo Kio Town … 0     Fema…    10  2024       0 0-9       NORTH…
 3 ANG MO KIO Ang Mo Kio Town … 1     Males    10  2024       1 0-9       NORTH…
 4 ANG MO KIO Ang Mo Kio Town … 1     Fema…    10  2024       1 0-9       NORTH…
 5 ANG MO KIO Ang Mo Kio Town … 2     Males    10  2024       2 0-9       NORTH…
 6 ANG MO KIO Ang Mo Kio Town … 2     Fema…    10  2024       2 0-9       NORTH…
 7 ANG MO KIO Ang Mo Kio Town … 3     Males    10  2024       3 0-9       NORTH…
 8 ANG MO KIO Ang Mo Kio Town … 3     Fema…    10  2024       3 0-9       NORTH…
 9 ANG MO KIO Ang Mo Kio Town … 4     Males    30  2024       4 0-9       NORTH…
10 ANG MO KIO Ang Mo Kio Town … 4     Fema…    10  2024       4 0-9       NORTH…
# ℹ 60,414 more rows
…
